TOP.vcd
$date
	Thu Mar 19 04:27:42 2026
$end
$version
	Icarus Verilog
$end
$timescale
	1ps
$end
$scope module TOP_TB $end
$var reg 1 ! clk $end
$var reg 1 " reset $end
$scope module ob26 $end
$var wire 1 ! clk $end
$var wire 1 " reset $end
$var wire 32 # writedataM [31:0] $end
$var wire 1 $ resultsrcW $end
$var wire 1 % resultsrcM $end
$var wire 1 & resultsrcE $end
$var wire 32 ' resultW [31:0] $end
$var wire 1 ( regwriteW $end
$var wire 1 ) regwriteM $end
$var wire 1 * regwriteE $end
$var wire 32 + readdataW [31:0] $end
$var wire 1 , memwriteM $end
$var wire 1 - memwriteE $end
$var wire 1 . jumpE $end
$var wire 1 / branchE $end
$var wire 1 0 alusrcE $end
$var wire 32 1 aluresultW [31:0] $end
$var wire 32 2 aluresultM [31:0] $end
$var wire 4 3 alucontrolE [3:0] $end
$var wire 5 4 RS2_E [4:0] $end
$var wire 5 5 RS1_E [4:0] $end
$var wire 5 6 RD_W [4:0] $end
$var wire 5 7 RD_M [4:0] $end
$var wire 5 8 RD_E [4:0] $end
$var wire 32 9 RD2_E [31:0] $end
$var wire 32 : RD1_E [31:0] $end
$var wire 32 ; PCtargetE [31:0] $end
$var wire 1 < PCsrcE $end
$var wire 32 = PCplus4W [31:0] $end
$var wire 32 > PCplus4M [31:0] $end
$var wire 32 ? PCplus4E [31:0] $end
$var wire 32 @ PCplus4D [31:0] $end
$var wire 32 A PC_D [31:0] $end
$var wire 32 B PCE [31:0] $end
$var wire 32 C Imm_Ext_E [31:0] $end
$var wire 32 D INSTRD [31:0] $end
$var wire 2 E ForwardB_E [1:0] $end
$var wire 2 F ForwardA_E [1:0] $end
$scope module ob20 $end
$var wire 1 ! clk $end
$var wire 1 " reset $end
$var wire 32 G PCtargetE [31:0] $end
$var wire 1 < PCsrcE $end
$var wire 32 H PCplus4F [31:0] $end
$var wire 32 I PCplus4D [31:0] $end
$var wire 32 J PC_F [31:0] $end
$var wire 32 K PC_D [31:0] $end
$var wire 32 L PCF [31:0] $end
$var wire 32 M INSTRF [31:0] $end
$var wire 32 N INSTRD [31:0] $end
$var reg 32 O InstrF_reg [31:0] $end
$var reg 32 P PCF_reg [31:0] $end
$var reg 32 Q PCplus4F_reg [31:0] $end
$scope module ob1 $end
$var wire 32 R PCtargetE [31:0] $end
$var wire 1 < PCsrcE $end
$var wire 32 S PCplus4F [31:0] $end
$var wire 32 T PCF [31:0] $end
$upscope $end
$scope module ob2 $end
$var wire 32 U PCF [31:0] $end
$var wire 1 ! clk $end
$var wire 1 " reset $end
$var reg 32 V PC_F [31:0] $end
$upscope $end
$scope module ob3 $end
$var wire 32 W PC_F [31:0] $end
$var wire 1 " reset $end
$var wire 32 X INSTRF [31:0] $end
$upscope $end
$scope module ob4 $end
$var wire 32 Y PC_F [31:0] $end
$var wire 32 Z PCplus4F [31:0] $end
$upscope $end
$upscope $end
$scope module ob21 $end
$var wire 32 [ INSTRD [31:0] $end
$var wire 32 \ Imm_Ext_E [31:0] $end
$var wire 32 ] PCE [31:0] $end
$var wire 32 ^ PC_D [31:0] $end
$var wire 32 _ PCplus4D [31:0] $end
$var wire 32 ` PCplus4E [31:0] $end
$var wire 32 a RD1_E [31:0] $end
$var wire 32 b RD2_E [31:0] $end
$var wire 5 c RD_E [4:0] $end
$var wire 5 d RS1_E [4:0] $end
$var wire 5 e RS2_E [4:0] $end
$var wire 4 f alucontrolE [3:0] $end
$var wire 1 0 alusrcE $end
$var wire 1 / branchE $end
$var wire 1 ! clk $end
$var wire 1 . jumpE $end
$var wire 1 - memwriteE $end
$var wire 1 * regwriteE $end
$var wire 1 " reset $end
$var wire 1 & resultsrcE $end
$var wire 1 g resultsrcD $end
$var wire 32 h resultW [31:0] $end
$var wire 1 ( regwriteW $end
$var wire 1 i regwriteD $end
$var wire 1 j memwriteD $end
$var wire 1 k jumpD $end
$var wire 2 l immsrcD [1:0] $end
$var wire 1 m branchD $end
$var wire 1 n alusrcD $end
$var wire 4 o alucontrolD [3:0] $end
$var wire 5 p RD_W [4:0] $end
$var wire 32 q RD2_D [31:0] $end
$var wire 32 r RD1_D [31:0] $end
$var wire 32 s Imm_Ext_D [31:0] $end
$var reg 32 t Imm_Ext_D_r [31:0] $end
$var reg 32 u PCD_r [31:0] $end
$var reg 32 v PCplus4D_r [31:0] $end
$var reg 32 w RD1_D_r [31:0] $end
$var reg 32 x RD2_D_r [31:0] $end
$var reg 5 y RD_D_r [4:0] $end
$var reg 5 z RS1_D_r [4:0] $end
$var reg 5 { RS2_D_r [4:0] $end
$var reg 4 | alucontrolD_r [3:0] $end
$var reg 1 } alusrcD_r $end
$var reg 1 / branchD_r $end
$var reg 1 . jumpD_r $end
$var reg 1 ~ memwriteD_r $end
$var reg 1 !" regwriteD_r $end
$var reg 1 "" resultsrcD_r $end
$scope module ob7 $end
$var wire 32 #" INSTRD [31:0] $end
$var wire 1 g resultsrc $end
$var wire 1 i regwrite $end
$var wire 7 $" opcode [6:0] $end
$var wire 1 j memwrite $end
$var wire 1 k jump $end
$var wire 2 %" immsrc [1:0] $end
$var wire 7 &" funct7 [6:0] $end
$var wire 3 '" funct3 [2:0] $end
$var wire 1 m branch $end
$var wire 1 n alusrc $end
$var wire 2 (" aluop [1:0] $end
$var wire 4 )" alu_control [3:0] $end
$scope module ob5 $end
$var wire 7 *" opcode [6:0] $end
$var wire 1 g resultsrc $end
$var wire 1 i regwrite $end
$var wire 1 j memwrite $end
$var wire 1 k jump $end
$var wire 2 +" immsrc [1:0] $end
$var wire 1 m branch $end
$var wire 1 n alusrc $end
$var wire 2 ," aluop [1:0] $end
$upscope $end
$scope module ob6 $end
$var wire 2 -" aluop [1:0] $end
$var wire 3 ." funct3 [2:0] $end
$var wire 7 /" funct7 [6:0] $end
$var wire 7 0" opcode [6:0] $end
$var wire 4 1" alucontrol [3:0] $end
$upscope $end
$upscope $end
$scope module ob8 $end
$var wire 5 2" A1 [4:0] $end
$var wire 5 3" A2 [4:0] $end
$var wire 1 ! clk $end
$var wire 1 " reset $end
$var wire 1 ( WE3 $end
$var wire 32 4" WD3 [31:0] $end
$var wire 32 5" RD2 [31:0] $end
$var wire 32 6" RD1 [31:0] $end
$var wire 5 7" A3 [4:0] $end
$var integer 32 8" i [31:0] $end
$upscope $end
$scope module ob9 $end
$var wire 32 9" In [31:0] $end
$var wire 2 :" immsrc [1:0] $end
$var wire 32 ;" immexD [31:0] $end
$upscope $end
$upscope $end
$scope module ob22 $end
$var wire 32 <" Imm_Ext_E [31:0] $end
$var wire 32 =" PCE [31:0] $end
$var wire 32 >" PCplus4E [31:0] $end
$var wire 32 ?" PCplus4M [31:0] $end
$var wire 1 < PCsrcE $end
$var wire 32 @" RD1_E [31:0] $end
$var wire 32 A" RD2_E [31:0] $end
$var wire 5 B" RD_E [4:0] $end
$var wire 5 C" RD_M [4:0] $end
$var wire 4 D" alucontrolE [3:0] $end
$var wire 32 E" aluresultM [31:0] $end
$var wire 1 0 alusrcE $end
$var wire 1 / branchE $end
$var wire 1 ! clk $end
$var wire 1 . jumpE $end
$var wire 1 - memwriteE $end
$var wire 1 , memwriteM $end
$var wire 1 * regwriteE $end
$var wire 1 ) regwriteM $end
$var wire 1 " reset $end
$var wire 1 & resultsrcE $end
$var wire 1 % resultsrcM $end
$var wire 32 F" writedataM [31:0] $end
$var wire 1 G" zeroE $end
$var wire 32 H" resultW [31:0] $end
$var wire 32 I" aluresultE [31:0] $end
$var wire 32 J" SRCB_inter [31:0] $end
$var wire 32 K" SRCB_E [31:0] $end
$var wire 32 L" SRCA_E [31:0] $end
$var wire 32 M" PCtargetE [31:0] $end
$var wire 2 N" ForwardB_E [1:0] $end
$var wire 2 O" ForwardA_E [1:0] $end
$var reg 32 P" PCplus4E_r [31:0] $end
$var reg 32 Q" RD2_E_r [31:0] $end
$var reg 5 R" RD_E_r [4:0] $end
$var reg 32 S" aluresultE_r [31:0] $end
$var reg 1 T" memwriteE_r $end
$var reg 1 ) regwriteE_r $end
$var reg 1 U" resultsrcE_r $end
$scope module ob10 $end
$var wire 32 V" A [31:0] $end
$var wire 32 W" C [31:0] $end
$var wire 2 X" sel [1:0] $end
$var wire 32 Y" B [31:0] $end
$var reg 32 Z" out [31:0] $end
$upscope $end
$scope module ob11 $end
$var wire 32 [" A [31:0] $end
$var wire 32 \" C [31:0] $end
$var wire 2 ]" sel [1:0] $end
$var wire 32 ^" B [31:0] $end
$var reg 32 _" out [31:0] $end
$upscope $end
$scope module ob12 $end
$var wire 32 `" A [31:0] $end
$var wire 32 a" B [31:0] $end
$var wire 1 0 sel $end
$var reg 32 b" out [31:0] $end
$upscope $end
$scope module ob13 $end
$var wire 32 c" A [31:0] $end
$var wire 32 d" B [31:0] $end
$var wire 4 e" alucontrol [3:0] $end
$var wire 1 G" zeroE $end
$var reg 32 f" result [31:0] $end
$upscope $end
$scope module ob14 $end
$var wire 32 g" PC [31:0] $end
$var wire 32 h" imm [31:0] $end
$var wire 32 i" pc_target [31:0] $end
$upscope $end
$upscope $end
$scope module ob23 $end
$var wire 32 j" PCplus4M [31:0] $end
$var wire 32 k" PCplus4W [31:0] $end
$var wire 5 l" RD_M [4:0] $end
$var wire 5 m" RD_W [4:0] $end
$var wire 32 n" aluresultM [31:0] $end
$var wire 32 o" aluresultW [31:0] $end
$var wire 1 ! clk $end
$var wire 1 , memwriteM $end
$var wire 32 p" readdataW [31:0] $end
$var wire 1 ) regwriteM $end
$var wire 1 ( regwriteW $end
$var wire 1 " reset $end
$var wire 1 % resultsrcM $end
$var wire 1 $ resultsrcW $end
$var wire 32 q" writedataM [31:0] $end
$var wire 32 r" readdataM [31:0] $end
$var reg 32 s" PCplus4M_r [31:0] $end
$var reg 5 t" RD_M_r [4:0] $end
$var reg 32 u" aluresultM_r [31:0] $end
$var reg 32 v" readdataM_r [31:0] $end
$var reg 1 ( regwriteM_r $end
$var reg 1 w" resultsrcM_r $end
$scope module ob15 $end
$var wire 1 ! clk $end
$var wire 32 x" mem_add [31:0] $end
$var wire 1 , mem_wr $end
$var wire 1 " reset $end
$var wire 32 y" wr_data [31:0] $end
$var wire 32 z" rd_data [31:0] $end
$upscope $end
$upscope $end
$scope module ob24 $end
$var wire 32 {" PCplus4W [31:0] $end
$var wire 5 |" RD_W [4:0] $end
$var wire 32 }" aluresultW [31:0] $end
$var wire 1 ! clk $end
$var wire 32 ~" readdataW [31:0] $end
$var wire 1 ( regwriteW $end
$var wire 1 " reset $end
$var wire 1 $ resultsrcW $end
$var wire 32 !# resultW [31:0] $end
$scope module ob16 $end
$var wire 32 "# A [31:0] $end
$var wire 32 ## B [31:0] $end
$var wire 1 $ sel $end
$var reg 32 $# out [31:0] $end
$upscope $end
$upscope $end
$scope module ob25 $end
$var wire 5 %# RD_M [4:0] $end
$var wire 5 &# RD_W [4:0] $end
$var wire 5 '# RS1_E [4:0] $end
$var wire 5 (# RS2_E [4:0] $end
$var wire 1 ) regwriteM $end
$var wire 1 ( regwriteW $end
$var wire 1 " reset $end
$var wire 2 )# ForwardB_E [1:0] $end
$var wire 2 *# ForwardA_E [1:0] $end
$upscope $end
$upscope $end
$upscope $end
$enddefinitions $end
$comment Show the parameter values. $end
$dumpall
$end
#0
$dumpvars
b0 *#
b0 )#
b0 (#
b0 '#
b0 &#
b0 %#
b0 $#
b0 ##
b0 "#
b0 !#
b0 ~"
b0 }"
b0 |"
b0 {"
b0 z"
b0 y"
b0 x"
0w"
b0 v"
b0 u"
b0 t"
b0 s"
b0 r"
b0 q"
b0 p"
b0 o"
b0 n"
b0 m"
b0 l"
b0 k"
b0 j"
b0 i"
b0 h"
b0 g"
b0 f"
b0 e"
b0 d"
b0 c"
b0 b"
b0 a"
b0 `"
b0 _"
b0 ^"
b0 ]"
b0 \"
b0 ["
b0 Z"
b0 Y"
b0 X"
b0 W"
b0 V"
0U"
0T"
b0 S"
b0 R"
b0 Q"
b0 P"
b0 O"
b0 N"
b0 M"
b0 L"
b0 K"
b0 J"
b0 I"
b0 H"
1G"
b0 F"
b0 E"
b0 D"
b0 C"
b0 B"
b0 A"
b0 @"
b0 ?"
b0 >"
b0 ="
b0 <"
b0 ;"
b0 :"
b0 9"
b100000 8"
b0 7"
b0 6"
b0 5"
b0 4"
b0 3"
b0 2"
b0 1"
b0 0"
b0 /"
b0 ."
b0 -"
b0 ,"
b0 +"
b0 *"
b0 )"
b0 ("
b0 '"
b0 &"
b0 %"
b0 $"
b0 #"
0""
0!"
0~
0}
b0 |
b0 {
b0 z
b0 y
b0 x
b0 w
b0 v
b0 u
b0 t
b0 s
b0 r
b0 q
b0 p
b0 o
0n
0m
b0 l
0k
0j
0i
b0 h
0g
b0 f
b0 e
b0 d
b0 c
b0 b
b0 a
b0 `
b0 _
b0 ^
b0 ]
b0 \
b0 [
b100 Z
b0 Y
b0 X
b0 W
b0 V
b100 U
b100 T
b100 S
b0 R
b0 Q
b0 P
b0 O
b0 N
b0 M
b100 L
b0 K
b0 J
b0 I
b100 H
b0 G
b0 F
b0 E
b0 D
b0 C
b0 B
b0 A
b0 @
b0 ?
b0 >
b0 =
0<
b0 ;
b0 :
b0 9
b0 8
b0 7
b0 6
b0 5
b0 4
b0 3
b0 2
b0 1
00
0/
0.
0-
0,
b0 +
0*
0)
0(
b0 '
0&
0%
0$
b0 #
1"
0!
$end
#10
b11000101000010100110011 M
b11000101000010100110011 X
0"
#50
b1 o
b1 )"
b1 1"
1i
b10 ("
b10 ,"
b10 -"
b110 s
b110 ;"
b101 2"
b110 3"
b110011 $"
b110011 *"
b110011 0"
b10010000000011 M
b10010000000011 X
b100 @
b100 I
b100 _
b11000101000010100110011 D
b11000101000010100110011 N
b11000101000010100110011 [
b11000101000010100110011 #"
b11000101000010100110011 9"
b1000 L
b1000 T
b1000 U
b100 Q
b11000101000010100110011 O
b1000 H
b1000 S
b1000 Z
b100 J
b100 V
b100 W
b100 Y
1!
#100
0!
#150
1n
b0 o
b0 )"
b0 1"
1g
b0 ("
b0 ,"
b0 -"
b0 s
b0 ;"
b10100000000001010010011 M
b10100000000001010010011 X
b0 2"
b0 3"
b11 $"
b11 *"
b11 0"
b10 '"
b10 ."
b1100 L
b1100 T
b1100 U
b1000 @
b1000 I
b1000 _
b100 A
b100 K
b100 ^
b10010000000011 D
b10010000000011 N
b10010000000011 [
b10010000000011 #"
b10010000000011 9"
b1100 H
b1100 S
b1100 Z
b1000 J
b1000 V
b1000 W
b1000 Y
b1000 Q
b100 P
b10010000000011 O
b100 ?
b100 `
b100 >"
b100 v
b110 4
b110 e
b110 {
b110 (#
b101 5
b101 d
b101 z
b101 '#
b1010 8
b1010 c
b1010 B"
b1010 y
b110 ;
b110 G
b110 R
b110 M"
b110 i"
b110 C
b110 \
b110 t
b110 <"
b110 a"
b110 h"
b1 3
b1 f
b1 D"
b1 e"
b1 |
1*
1!"
1!
#200
0!
#250
1i
0g
b101 s
b101 ;"
b101 3"
b10011 $"
b10011 *"
b10011 0"
b0 '"
b0 ."
b1100000000001100010011 M
b1100000000001100010011 X
b1100 @
b1100 I
b1100 _
b1000 A
b1000 K
b1000 ^
b10100000000001010010011 D
b10100000000001010010011 N
b10100000000001010010011 [
b10100000000001010010011 #"
b10100000000001010010011 9"
b10000 L
b10000 T
b10000 U
b100 >
b100 ?"
b100 j"
b100 P"
b1010 7
b1010 C"
b1010 R"
b1010 l"
b1010 %#
1)
b1000 ?
b1000 `
b1000 >"
b1000 v
b100 B
b100 ]
b100 u
b100 ="
b100 g"
b0 4
b0 e
b0 {
b0 (#
b0 5
b0 d
b0 z
b0 '#
b1000 8
b1000 c
b1000 B"
b1000 y
b100 ;
b100 G
b100 R
b100 M"
b100 i"
b0 C
b0 \
b0 t
b0 <"
b0 a"
b0 h"
b0 3
b0 f
b0 D"
b0 e"
b0 |
1&
1""
10
1}
b1100 Q
b1000 P
b10100000000001010010011 O
b10000 H
b10000 S
b10000 Z
b1100 J
b1100 V
b1100 W
b1100 Y
1!
#300
0!
#350
b11 s
b11 ;"
b11000101000001110110011 M
b11000101000001110110011 X
b11 3"
b10100 L
b10100 T
b10100 U
b10000 @
b10000 I
b10000 _
b1100 A
b1100 K
b1100 ^
b1100000000001100010011 D
b1100000000001100010011 N
b1100000000001100010011 [
b1100000000001100010011 #"
b1100000000001100010011 9"
b101 K"
b101 b"
b101 d"
b10100 H
b10100 S
b10100 Z
b10000 J
b10000 V
b10000 W
b10000 Y
b10000 Q
b1100 P
b1100000000001100010011 O
b1100 ?
b1100 `
b1100 >"
b1100 v
b1000 B
b1000 ]
b1000 u
b1000 ="
b1000 g"
b101 4
b101 e
b101 {
b101 (#
b101 8
b101 c
b101 B"
b101 y
b1101 ;
b1101 G
b1101 R
b1101 M"
b1101 i"
b101 C
b101 \
b101 t
b101 <"
b101 a"
b101 h"
0&
0""
b1000 >
b1000 ?"
b1000 j"
b1000 P"
b1000 7
b1000 C"
b1000 R"
b1000 l"
b1000 %#
1%
1U"
b1010 6
b1010 p
b1010 7"
b1010 m"
b1010 t"
b1010 |"
b1010 &#
b100 =
b100 k"
b100 {"
b100 s"
1(
1!
#400
0!
#450
b1 o
b1 )"
b1 1"
0n
b10 ("
b10 ,"
b10 -"
b110 s
b110 ;"
b101 2"
b110 3"
b110011 $"
b110011 *"
b110011 0"
b100000000010010010011 M
b100000000010010010011 X
b11 K"
b11 b"
b11 d"
b10100 @
b10100 I
b10100 _
b10000 A
b10000 K
b10000 ^
b11000101000001110110011 D
b11000101000001110110011 N
b11000101000001110110011 [
b11000101000001110110011 #"
b11000101000001110110011 9"
b11000 L
b11000 T
b11000 U
b1100 >
b1100 ?"
b1100 j"
b1100 P"
b101 7
b101 C"
b101 R"
b101 l"
b101 %#
0%
0U"
b10000 ?
b10000 `
b10000 >"
b10000 v
b1100 B
b1100 ]
b1100 u
b1100 ="
b1100 g"
b11 4
b11 e
b11 {
b11 (#
b110 8
b110 c
b110 B"
b110 y
b1111 ;
b1111 G
b1111 R
b1111 M"
b1111 i"
b11 C
b11 \
b11 t
b11 <"
b11 a"
b11 h"
b10100 Q
b10000 P
b11000101000001110110011 O
b11000 H
b11000 S
b11000 Z
b10100 J
b10100 V
b10100 W
b10100 Y
b1000 6
b1000 p
b1000 7"
b1000 m"
b1000 t"
b1000 |"
b1000 &#
b1000 =
b1000 k"
b1000 {"
b1000 s"
1$
1w"
1!
#500
0!
#550
1n
b0 o
b0 )"
b0 1"
b1 F
b1 O"
b1 X"
b1 *#
b0 ("
b0 ,"
b0 -"
b1 s
b1 ;"
b10 E
b10 N"
b10 ]"
b10 )#
b100101000000010100110011 M
b100101000000010100110011 X
b0 2"
b1 3"
b10011 $"
b10011 *"
b10011 0"
b11100 L
b11100 T
b11100 U
b11000 @
b11000 I
b11000 _
b10100 A
b10100 K
b10100 ^
b100000000010010010011 D
b100000000010010010011 N
b100000000010010010011 [
b100000000010010010011 #"
b100000000010010010011 9"
b0 K"
b0 b"
b0 d"
b11100 H
b11100 S
b11100 Z
b11000 J
b11000 V
b11000 W
b11000 Y
b11000 Q
b10100 P
b100000000010010010011 O
b10100 ?
b10100 `
b10100 >"
b10100 v
b10000 B
b10000 ]
b10000 u
b10000 ="
b10000 g"
b110 4
b110 e
b110 {
b110 (#
b101 5
b101 d
b101 z
b101 '#
b111 8
b111 c
b111 B"
b111 y
b10110 ;
b10110 G
b10110 R
b10110 M"
b10110 i"
b110 C
b110 \
b110 t
b110 <"
b110 a"
b110 h"
b1 3
b1 f
b1 D"
b1 e"
b1 |
00
0}
b10000 >
b10000 ?"
b10000 j"
b10000 P"
b110 7
b110 C"
b110 R"
b110 l"
b110 %#
b101 6
b101 p
b101 7"
b101 m"
b101 t"
b101 |"
b101 &#
b1100 =
b1100 k"
b1100 {"
b1100 s"
0$
0w"
1!
#600
0!
#650
b1 o
b1 )"
b1 1"
0n
b0 E
b0 N"
b0 ]"
b0 )#
b10 ("
b10 ,"
b10 -"
b1001 s
b1001 ;"
b1000 2"
b1001 3"
b110011 $"
b110011 *"
b110011 0"
bx M
bx X
b1 K"
b1 b"
b1 d"
b11100 @
b11100 I
b11100 _
b11000 A
b11000 K
b11000 ^
b100101000000010100110011 D
b100101000000010100110011 N
b100101000000010100110011 [
b100101000000010100110011 #"
b100101000000010100110011 9"
b100000 L
b100000 T
b100000 U
b10100 >
b10100 ?"
b10100 j"
b10100 P"
b111 7
b111 C"
b111 R"
b111 l"
b111 %#
b11000 ?
b11000 `
b11000 >"
b11000 v
b10100 B
b10100 ]
b10100 u
b10100 ="
b10100 g"
b1 4
b1 e
b1 {
b1 (#
b0 5
b0 d
b0 z
b0 '#
b1001 8
b1001 c
b1001 B"
b1001 y
b10101 ;
b10101 G
b10101 R
b10101 M"
b10101 i"
b1 C
b1 \
b1 t
b1 <"
b1 a"
b1 h"
b0 3
b0 f
b0 D"
b0 e"
b0 |
10
1}
b11100 Q
b11000 P
b100101000000010100110011 O
b100000 H
b100000 S
b100000 Z
b11100 J
b11100 V
b11100 W
b11100 Y
b0 F
b0 O"
b0 X"
b0 *#
b110 6
b110 p
b110 7"
b110 m"
b110 t"
b110 |"
b110 &#
b10000 =
b10000 k"
b10000 {"
b10000 s"
1!
#700
0!
#750
xi
xn
bx o
bx )"
bx 1"
bx r
bx 6"
bx q
bx 5"
bx l
bx %"
bx +"
bx :"
xg
xj
xm
xk
bx ("
bx ,"
bx -"
bx s
bx ;"
b10 E
b10 N"
b10 ]"
b10 )#
bx 2"
bx 3"
bx $"
bx *"
bx 0"
bx '"
bx ."
bx &"
bx /"
b100100 L
b100100 T
b100100 U
b100000 @
b100000 I
b100000 _
b11100 A
b11100 K
b11100 ^
bx D
bx N
bx [
bx #"
bx 9"
b0 K"
b0 b"
b0 d"
b100100 H
b100100 S
b100100 Z
b100000 J
b100000 V
b100000 W
b100000 Y
b100000 Q
b11100 P
bx O
b11100 ?
b11100 `
b11100 >"
b11100 v
b11000 B
b11000 ]
b11000 u
b11000 ="
b11000 g"
b1001 4
b1001 e
b1001 {
b1001 (#
b1000 5
b1000 d
b1000 z
b1000 '#
b1010 8
b1010 c
b1010 B"
b1010 y
b100001 ;
b100001 G
b100001 R
b100001 M"
b100001 i"
b1001 C
b1001 \
b1001 t
b1001 <"
b1001 a"
b1001 h"
b1 3
b1 f
b1 D"
b1 e"
b1 |
00
0}
b11000 >
b11000 ?"
b11000 j"
b11000 P"
b1001 7
b1001 C"
b1001 R"
b1001 l"
b1001 %#
b111 6
b111 p
b111 7"
b111 m"
b111 t"
b111 |"
b111 &#
b10100 =
b10100 k"
b10100 {"
b10100 s"
1!
#800
0!
#850
bx E
bx N"
bx ]"
bx )#
bx F
bx O"
bx X"
bx *#
b0 L"
b0 Z"
b0 c"
x<
b100100 @
b100100 I
b100100 _
b100000 A
b100000 K
b100000 ^
bx L
bx T
bx U
b11100 >
b11100 ?"
b11100 j"
b11100 P"
b1010 7
b1010 C"
b1010 R"
b1010 l"
b1010 %#
b100000 ?
b100000 `
b100000 >"
b100000 v
b11100 B
b11100 ]
b11100 u
b11100 ="
b11100 g"
bx 4
bx e
bx {
bx (#
bx 5
bx d
bx z
bx '#
bx 8
bx c
bx B"
bx y
bx ;
bx G
bx R
bx M"
bx i"
bx C
bx \
bx t
bx <"
bx a"
bx h"
bx 9
bx b
bx A"
bx ["
bx x
bx :
bx a
bx @"
bx V"
bx w
bx 3
bx f
bx D"
bx e"
bx |
x.
x/
x&
x""
x-
x~
x0
x}
x*
x!"
b100100 Q
b100000 P
b101000 H
b101000 S
b101000 Z
b100100 J
b100100 V
b100100 W
b100100 Y
b1001 6
b1001 p
b1001 7"
b1001 m"
b1001 t"
b1001 |"
b1001 &#
b11000 =
b11000 k"
b11000 {"
b11000 s"
1!
#900
0!
#950
b101000 @
b101000 I
b101000 _
b100100 A
b100100 K
b100100 ^
bx H
bx S
bx Z
bx J
bx V
bx W
bx Y
b101000 Q
b100100 P
b100100 ?
b100100 `
b100100 >"
b100100 v
b100000 B
b100000 ]
b100000 u
b100000 ="
b100000 g"
b100000 >
b100000 ?"
b100000 j"
b100000 P"
bx 7
bx C"
bx R"
bx l"
bx %#
x%
xU"
x,
xT"
x)
b1010 6
b1010 p
b1010 7"
b1010 m"
b1010 t"
b1010 |"
b1010 &#
b11100 =
b11100 k"
b11100 {"
b11100 s"
1!
#1000
0!
#1050
bx @
bx I
bx _
bx A
bx K
bx ^
b100100 >
b100100 ?"
b100100 j"
b100100 P"
b101000 ?
b101000 `
b101000 >"
b101000 v
b100100 B
b100100 ]
b100100 u
b100100 ="
b100100 g"
bx Q
bx P
bx 6
bx p
bx 7"
bx m"
bx t"
bx |"
bx &#
b100000 =
b100000 k"
b100000 {"
b100000 s"
x(
x$
xw"
1!
#1100
0!
#1150
bx ?
bx `
bx >"
bx v
bx B
bx ]
bx u
bx ="
bx g"
b101000 >
b101000 ?"
b101000 j"
b101000 P"
b100100 =
b100100 k"
b100100 {"
b100100 s"
1!
#1200
0!
#1250
bx >
bx ?"
bx j"
bx P"
b101000 =
b101000 k"
b101000 {"
b101000 s"
1!
#1300
0!
#1350
bx =
bx k"
bx {"
bx s"
1!
